lab3/lab3_fir_filter/lab3_fir_filter.sim/sim_1/behav/xsim/fir.vcd
$date
   Mon Mar 17 09:45:05 2025
$end
$version
  2022.1
$end
$timescale
  1ps
$end
$scope module fir_tb $end
$var wire 1 ! awready $end
$var wire 1 " wready $end
$var reg 1 # awvalid $end
$var reg 12 $ awaddr [11:0] $end
$var reg 1 % wvalid $end
$var reg 32 & wdata [31:0] $end
$var wire 1 ' arready $end
$var reg 1 ( rready $end
$var reg 1 ) arvalid $end
$var reg 12 * araddr [11:0] $end
$var wire 1 + rvalid $end
$var wire 32 , rdata [31:0] $end
$var reg 1 - ss_tvalid $end
$var reg 32 . ss_tdata [31:0] $end
$var reg 1 / ss_tlast $end
$var wire 1 0 ss_tready $end
$var reg 1 1 sm_tready $end
$var wire 1 2 sm_tvalid $end
$var wire 32 3 sm_tdata [31:0] $end
$var wire 1 4 sm_tlast $end
$var reg 1 5 axis_clk $end
$var reg 1 6 axis_rst_n $end
$var wire 4 7 tap_WE [3:0] $end
$var wire 1 8 tap_EN $end
$var wire 32 9 tap_Di [31:0] $end
$var wire 12 : tap_A [11:0] $end
$var wire 32 ; tap_Do [31:0] $end
$var wire 4 < data_WE [3:0] $end
$var wire 1 = data_EN $end
$var wire 32 > data_Di [31:0] $end
$var wire 12 ? data_A [11:0] $end
$var wire 32 @ data_Do [31:0] $end
$var reg 32 A data_length [31:0] $end
$var integer 32 B Din [31:0] $end
$var integer 32 C golden [31:0] $end
$var integer 32 D input_data [31:0] $end
$var integer 32 E golden_data [31:0] $end
$var integer 32 F m [31:0] $end
$var integer 32 G i [31:0] $end
$var integer 32 H k [31:0] $end
$var reg 1 I error $end
$var reg 1 J status_error $end
$var integer 32 K timeout [31:0] $end
$var reg 1 L error_coef $end
$scope module fir_DUT $end
$var wire 1 ! awready $end
$var wire 1 " wready $end
$var wire 1 M awvalid $end
$var wire 12 N awaddr [11:0] $end
$var wire 1 O wvalid $end
$var wire 32 P wdata [31:0] $end
$var wire 1 ' arready $end
$var wire 1 Q rready $end
$var wire 1 R arvalid $end
$var wire 12 S araddr [11:0] $end
$var wire 1 + rvalid $end
$var wire 32 , rdata [31:0] $end
$var wire 1 T ss_tvalid $end
$var wire 32 U ss_tdata [31:0] $end
$var wire 1 V ss_tlast $end
$var wire 1 0 ss_tready $end
$var wire 1 W sm_tready $end
$var wire 1 2 sm_tvalid $end
$var wire 32 3 sm_tdata [31:0] $end
$var wire 1 4 sm_tlast $end
$var wire 4 7 tap_WE [3:0] $end
$var wire 1 8 tap_EN $end
$var wire 32 9 tap_Di [31:0] $end
$var wire 12 : tap_A [11:0] $end
$var wire 32 ; tap_Do [31:0] $end
$var wire 4 < data_WE [3:0] $end
$var wire 1 = data_EN $end
$var wire 32 > data_Di [31:0] $end
$var wire 12 ? data_A [11:0] $end
$var wire 32 @ data_Do [31:0] $end
$var wire 1 X axis_clk $end
$var wire 1 Y axis_rst_n $end
$var wire 1 Z rslt_vld $end
$var wire 32 [ core_result [31:0] $end
$var wire 1 \ rd_en_source $end
$var wire 1 ] we_tap $end
$var wire 1 ^ we_str $end
$scope module axi_intf_inst $end
$var wire 1 X clk $end
$var wire 1 Y rst_n $end
$var wire 1 M awvalid $end
$var wire 12 N awaddr [11:0] $end
$var wire 1 O wvalid $end
$var wire 32 P wdata [31:0] $end
$var wire 1 R arvalid $end
$var wire 12 _ araddr [11:0] $end
$var wire 1 T ss_tvalid $end
$var wire 1 V ss_tlast $end
$var wire 32 U ss_tdata [31:0] $end
$var wire 32 ; dout_tap [31:0] $end
$var wire 1 \ rd_en_fifo $end
$var wire 32 [ core_result [31:0] $end
$var wire 1 Z result_vld $end
$var wire 1 W sm_tready $end
$var wire 1 ! awready $end
$var wire 1 " wready $end
$var wire 1 ' arready $end
$var wire 1 + rvalid $end
$var wire 32 , rdata [31:0] $end
$var wire 1 0 ss_tready $end
$var wire 1 ] we_tap $end
$var wire 1 8 en_tap $end
$var wire 32 9 din_tap [31:0] $end
$var wire 12 : ain_tap [11:0] $end
$var wire 1 ^ we_str $end
$var wire 1 = en_str $end
$var wire 32 > din_str [31:0] $end
$var wire 12 ? ain_str [11:0] $end
$var wire 1 \ rd_en_source $end
$var wire 1 2 sm_tvalid $end
$var wire 32 3 sm_tdata [31:0] $end
$var wire 1 4 sm_tlast $end
$var wire 1 ` clk_comp $end
$var wire 1 a conf_a_arrive $end
$var wire 1 b conf_d_arrive $end
$var wire 1 c raddr_arrive $end
$var reg 12 d awaddr_prev [11:0] $end
$var reg 32 e wdata_prev [31:0] $end
$var reg 12 f araddr_prev [11:0] $end
$var reg 3 g nxt_state_running [2:0] $end
$var reg 2 h nxt_state_arr [1:0] $end
$var reg 3 i state_running [2:0] $end
$var reg 2 j state_arr [1:0] $end
$var reg 3 k run_status [2:0] $end
$var reg 3 l run_status_internal [2:0] $end
$var wire 3 m nxt_run_status [2:0] $end
$var wire 1 n we_tap_from_in $end
$var wire 1 o we_tap_from_out $end
$var wire 3 p wdata_upd_from_in [2:0] $end
$var wire 32 q wdata_upd [31:0] $end
$var reg 1 r valid_read $end
$var reg 4 s tap_count [3:0] $end
$var wire 1 t en_read_tap $end
$var wire 1 u wr_en_fifo $end
$var wire 32 v data_in_fifo [31:0] $end
$var wire 32 w data_sram_to_fifo [31:0] $end
$var wire 12 x ain_str_r [11:0] $end
$var wire 12 y ain_str_w [11:0] $end
$var wire 32 z data_fifo_to_sram [31:0] $end
$var wire 1 { full_fifo $end
$var wire 32 | data_out_fifo [31:0] $end
$var reg 32 } num_vld [31:0] $end
$var reg 1 ~ result_vld_1 $end
$var reg 32 !! max_num [31:0] $end
$var wire 32 "! nxt_num_vld [31:0] $end
$var wire 1 #! awaddr_upd $end
$var wire 1 $! araddr_upd $end
$var wire 1 %! empty_fifo $end
$scope module fifo_1 $end
$var wire 1 X clk $end
$var wire 1 Y rst_n $end
$var wire 1 u wr_en_fifo $end
$var wire 1 \ rd_en_fifo $end
$var wire 32 v data_in_fifo [31:0] $end
$var wire 32 z data_fifo_to_sram [31:0] $end
$var wire 4 &! ain_str_r [3:0] $end
$var wire 4 '! ain_str_w [3:0] $end
$var wire 1 = en_str $end
$var wire 1 ^ we_str $end
$var wire 1 %! empty_fifo $end
$var wire 1 { full_fifo $end
$var wire 4 (! nxt_wrt_ptr [3:0] $end
$var wire 4 )! nxt_rd_ptr [3:0] $end
$var reg 4 *! wrt_ptr [3:0] $end
$var reg 4 +! rd_ptr [3:0] $end
$upscope $end
$upscope $end
$scope module fir_core_inst $end
$var wire 1 X clk $end
$var wire 1 Y rst_n $end
$var wire 32 ; data_in_tap [31:0] $end
$var wire 32 @ data_in_str [31:0] $end
$var wire 1 ,! data_str_vld $end
$var wire 1 \ rd_en_source $end
$var wire 32 [ core_result [31:0] $end
$var wire 1 Z result_vld $end
$var wire 1 -! clk_core $end
$var reg 1 .! rd_en_source_ext $end
$var reg 5 /! core_cycle [4:0] $end
$var wire 5 0! core_cycle_nxt [4:0] $end
$var reg 32 1! data_in_tap_prep [31:0] $end
$var reg 4 2! data_sel_str [3:0] $end
$var reg 1 3! shift_upd $end
$var reg 32 4! mult_prod [31:0] $end
$var reg 32 5! sum [31:0] $end
$var wire 32 6! adder_a [31:0] $end
$var wire 32 7! adder_b [31:0] $end
$var integer 32 8! i [31:0] $end
$upscope $end
$upscope $end
$scope module tap_RAM $end
$var wire 1 9! CLK $end
$var wire 4 7 WE [3:0] $end
$var wire 1 8 EN $end
$var wire 32 9 Di [31:0] $end
$var wire 32 ; Do [31:0] $end
$var wire 12 : A [11:0] $end
$var reg 12 :! r_A [11:0] $end
$var reg 32 ;! Temp_D [31:0] $end
$upscope $end
$scope module data_RAM $end
$var wire 1 <! CLK $end
$var wire 4 < WE [3:0] $end
$var wire 1 = EN $end
$var wire 32 > Di [31:0] $end
$var wire 32 @ Do [31:0] $end
$var wire 12 ? A [11:0] $end
$var reg 12 =! r_A [11:0] $end
$var reg 32 >! Temp_D [31:0] $end
$upscope $end
$scope task config_write $end
$var reg 12 ?! addr [11:0] $end
$var reg 32 @! data [31:0] $end
$upscope $end
$scope task config_read_check $end
$var reg 12 A! addr [11:0] $end
$var reg 32 B! exp_data [31:0] $end
$var reg 32 C! mask [31:0] $end
$upscope $end
$scope task ss $end
$var reg 32 D! in1 [31:0] $end
$upscope $end
$scope task sm $end
$var reg 32 E! in2 [31:0] $end
$var reg 32 F! pcnt [31:0] $end
$upscope $end
$upscope $end
$enddefinitions $end
#0
$dumpvars
0!
b0 !!
0"
b0 "!
0#
x#!
bx $
x$!
0%
x%!
bx &
b0 &!
0'
b0 '!
x(
b0x (!
x)
b0 )!
bx *
b0 *!
0+
b0 +!
bx ,
z,!
1-
0-!
b1 .
0.!
0/
b0 /!
x0
b1 0!
11
bx 1!
02
b0 2!
b0 3
03!
14
b0 4!
05
b0 5!
06
b0 6!
b1111 7
b0 7!
18
b1011 8!
b0xxx 9
09!
b0 :
bx :!
bx ;
bx ;!
bx <
0<!
x=
bx =!
b1 >
bx >!
bx0000 ?
b10000 ?!
bx @
b1001011000 @!
b1001011000 A
bx A!
b11111111111111111011000111100000 B
bx B!
b11111111111111111011000111100001 C
bx C!
b1 D
b1 D!
b1 E
bx E!
b1001011000 F
bx F!
b0 G
bx H
0I
0J
b11110100001001000000 K
0L
0M
bx N
0O
bx P
xQ
xR
bx S
1T
b1 U
0V
1W
0X
0Y
0Z
b0 [
0\
1]
x^
bz _
0`
0a
0b
0c
bx d
bx e
bx f
b101 g
b0 h
b0 i
b0 j
b100 k
b100 l
b100 m
1n
0o
bx p
bx q
0r
b0 s
0t
xu
b1 v
bz w
bz0000 x
bz0000 y
b1 z
z{
bz |
b0 }
0~
$end
#5000
b0 !!
1#
x#!
b10000 $
x$!
1%
b1001011000 &
b0 *!
b0 +!
b0xxx ,
1-
0-!
b10 .
0.!
15
19!
b0 :!
b0xxx ;
1<!
bx0000 =!
b10 >
bx @
b10 D!
b1 G
b11110100001000111111 K
1M
b10000 N
1O
b1001011000 P
b10 U
1X
0`
0a
0b
b0x d
bx e
b0x f
b0 i
b0 j
b100 k
b100 l
bx q
0r
b10 v
b10 z
b0 }
0~
#10000
0-!
05
09!
0<!
0X
0`
#15000
1!
b0 !!
1"
0#!
x$!
x%!
1'
b0x '!
bx (!
b0x *!
b0 +!
1-
0-!
b11 .
0.!
15
16
b0 7
x8
b1001011000 9
19!
b0x :
b0 :!
b0xxx ;
1<!
bx0000 =!
b11 >
bx000x ?
b11 D!
b10 G
b11110100001000111110 K
b11 U
1X
1Y
0]
0`
1a
1b
xc
b0x d
bx e
b0x f
b101 g
b11 h
b101 i
b0 j
b100 k
b100 m
0n
bx p
b1001011000 q
0r
xt
b11 v
bz000x y
b11 z
b0 }
0~
#20000
0-!
05
09!
0<!
0X
0`
#25000
b0 !!
0#
0#!
0%
x%!
bx '!
bx (!
bx *!
x+
b0 +!
1-
0-!
b100 .
0.!
15
b1111 7
18
19!
b0x :!
b0xxx ;
1<!
bx000x =!
b100 >
bx ?
b100000 ?!
bx @
b0 @!
b100 D!
b11 G
b0 H
b11110100001000111101 K
0M
0O
b100 U
1X
1]
0`
0a
0b
b0 d
b1001011000 e
b0x f
b10 g
b0 h
b101 i
b11 j
b100 k
b0 m
0n
1o
bx p
b1001011000 q
xr
b100 v
bzxxxx y
b100 z
b0 }
0~
#30000
0-!
05
09!
0<!
0X
0`
#35000
0!
b1001011000 !!
0"
1#
0#!
b100000 $
x$!
1%
b0 &
0'
bx *!
b0 +!
b1001011000 ,
1-
0-!
b101 .
0.!
02
04
15
b1111 7
18
b100 9
19!
b0 :
b0x :!
b1001011000 ;
1<!
bx =!
b101 >
bx @
b101 D!
b100 G
b11110100001000111100 K
1M
b100000 N
1O
b0 P
b101 U
1X
1]
0`
0a
0b
0c
b0 d
b1001011000 e
b0x f
b0 g
b0 h
b10 i
b0 j
b0 k
b100 m
1n
0o
b100 p
b1001011000 q
xr
0t
b101 v
b101 z
b0 }
0~
#40000
0-!
05
09!
0<!
0X
0`
#45000
0!
b0 !!
0"
0#!
0'
bx *!
0+
b0 +!
b100 ,
1-
0-!
b110 .
0.!
02
14
15
b1111 7
18
b0xxx 9
19!
b0 :
b0 :!
b100 ;
1<!
bx =!
b110 >
b110 D!
b101 G
b11110100001000111011 K
b110 U
1X
1]
0`
0a
0b
b0 d
b1001011000 e
b0x f
b101 g
b0 h
b0 i
b0 j
b100 k
1n
bx p
b1001011000 q
0r
b110 v
b110 z
b0 }
0~
#50000
0-!
05
09!
0<!
0X
0`
#55000
1!
b0 !!
1"
0#!
x$!
1'
bx *!
b0 +!
b0xxx ,
1-
0-!
b111 .
0.!
15
b0 7
x8
b0 9
19!
b0x :
b0 :!
b0xxx ;
1<!
bx =!
b111 >
b111 D!
b110 G
b11110100001000111010 K
b111 U
1X
0]
0`
1a
1b
xc
b0 d
b1001011000 e
b0x f
b11 h
b101 i
b0 j
b100 k
0n
bx p
b0 q
0r
xt
b111 v
b111 z
b0 }
0~
#60000
0-!
05
09!
0<!
0X
0`
#65000
b0 !!
0#
0#!
0%
bx *!
x+
b0 +!
1-
0-!
b1000 .
0.!
15
b1111 7
18
19!
b0x :!
b0xxx ;
1<!
bx =!
b1000 >
b100100 ?!
b11111111111111111111111111110110 @!
b1000 D!
b111 G
b1 H
b11110100001000111001 K
0M
0O
b1000 U
1X
1]
0`
0a
0b
b0 d
b0 e
b0x f
b10 g
b0 h
b101 i
b11 j
b100 k
b0 m
0n
1o
bx p
b0 q
xr
b1000 v
b1000 z
b0 }
0~
#70000
0-!
05
09!
0<!
0X
0`
#75000
0!
b0 !!
0"
1#
0#!
b100100 $
x$!
1%
b11111111111111111111111111110110 &
0'
bx *!
b0 +!
b0 ,
1-
0-!
b1001 .
0.!
15
b1111 7
18
b0xxx 9
19!
b0 :
b0x :!
b0 ;
1<!
bx =!
b1001 >
b1001 D!
b1000 G
b11110100001000111000 K
1M
b100100 N
1O
b11111111111111111111111111110110 P
b1001 U
1X
1]
0`
0a
0b
0c
b0 d
b0 e
b0x f
b101 g
b0 h
b10 i
b0 j
b0 k
b100 m
1n
0o
bx p
b0 q
xr
0t
b1001 v
b1001 z
b0 }
0~
#80000
0-!
05
09!
0<!
0X
0`
#85000
1!
b0 !!
1"
0#!
x$!
1'
bx *!
0+
b0 +!
b0xxx ,
1-
0-!
b1010 .
0.!
15
b0 7
x8
b11111111111111111111111111110110 9
19!
b0x :
b0 :!
b0xxx ;
1<!
bx =!
b1010 >
b1010 D!
b1001 G
b11110100001000110111 K
b1010 U
1X
0]
0`
1a
1b
xc
b0 d
b0 e
b0x f
b11 h
b101 i
b0 j
b100 k
b100 m
0n
bx p
b11111111111111111111111111110110 q
0r
xt
b1010 v
b1010 z
b0 }
0~
#90000
0-!
05
09!
0<!
0X
0`
#95000
b0 !!
0#
0#!
0%
bx *!
x+
b0 +!
1-
0-!
b1011 .
0.!
15
b1111 7
18
19!
b0x :!
b0xxx ;
1<!
bx =!
b1011 >
b101000 ?!
b11111111111111111111111111110111 @!
b1011 D!
b1010 G
b10 H
b11110100001000110110 K
0M
0O
b1011 U
1X
1]
0`
0a
0b
b0 d
b11111111111111111111111111110110 e
b0x f
b10 g
b0 h
b101 i
b11 j
b100 k
b110 m
0n
1o
bx p
b11111111111111111111111111110110 q
xr
b1011 v
b1011 z
b0 }
0~
#100000
0-!
05
09!
0<!
0X
0`
#105000
0!
b0 !!
0"
1#
0#!
b101000 $
x$!
1%
b11111111111111111111111111110111 &
0'
bx *!
b0 +!
b11111111111111111111111111110110 ,
1-
0-!
b1100 .
0.!
15
b1111 7
18
b0xxx 9
19!
b0 :
b0x :!
b11111111111111111111111111110110 ;
1<!
bx =!
b1100 >
b1100 D!
b1011 G
b11110100001000110101 K
1M
b101000 N
1O
b11111111111111111111111111110111 P
b1100 U
1X
1]
0`
0a
0b
0c
b0 d
b11111111111111111111111111110110 e
b0x f
b101 g
b0 h
b10 i
b0 j
b110 k
b100 m
1n
0o
bx p
b11111111111111111111111111110110 q
xr
0t
b1100 v
b1100 z
b0 }
0~
#110000
0-!
05
09!
0<!
0X
0`
#115000
1!
b0 !!
1"
0#!
x$!
1'
bx *!
0+
b0 +!
b0xxx ,
1-
0-!
b1101 .
0.!
15
b0 7
x8
b11111111111111111111111111110111 9
19!
b0x :
b0 :!
b0xxx ;
1<!
bx =!
b1101 >
b1101 D!
b1100 G
b11110100001000110100 K
b1101 U
1X
0]
0`
1a
1b
xc
b0 d
b11111111111111111111111111110110 e
b0x f
b101 g
b11 h
b101 i
b0 j
b100 k
b100 m
0n
bx p
b11111111111111111111111111110111 q
0r
xt
b1101 v
b1101 z
b0 }
0~
#120000
0-!
05
09!
0<!
0X
0`
#125000
0!
b0 !!
0"
0#
0#!
0%
bx *!
x+
b0 +!
1-
0-!
b1110 .
0.!
15
b1111 7
18
b0xxx 9
19!
b0 :
b0x :!
b0xxx ;
1<!
bx =!
b1110 >
b101100 ?!
b10111 @!
b1110 D!
b1101 G
b11 H
b11110100001000110011 K
0M
0O
b1110 U
1X
1]
0`
0a
0b
b0 d
b11111111111111111111111111110111 e
b0x f
b1 g
b0 h
b101 i
b11 j
b100 k
b111 m
1n
1o
bx p
b11111111111111111111111111110111 q
xr
b1110 v
b1110 z
b0 }
0~
#130000
0-!
05
09!
0<!
0X
0`
#135000
0!
b0 !!
0"
1#
0#!
b101100 $
x$!
1%
b10111 &
0'
bx *!
b0 +!
b0xxx ,
1-
0-!
b1111 .
0.!
15
b1111 7
18
b0xxx 9
19!
b0 :
b0 :!
b0xxx ;
1<!
bx =!
b1111 >
b1111 D!
b1110 G
b11110100001000110010 K
1M
b101100 N
1O
b10111 P
b1111 U
1X
1]
0`
0a
0b
0c
b0 d
b11111111111111111111111111110111 e
b0x f
b101 g
b0 h
b1 i
b0 j
b111 k
b100 m
1n
0o
bx p
b11111111111111111111111111110111 q
xr
0t
b1111 v
b1111 z
b0 }
0~
#140000
0-!
05
09!
0<!
0X
0`
#145000
1!
b0 !!
1"
0#!
x$!
1'
bx *!
0+
b0 +!
1-
0-!
b10000 .
0.!
15
b0 7
x8
b10111 9
19!
b0x :
b0 :!
b0xxx ;
1<!
bx =!
b10000 >
b10000 D!
b1111 G
b11110100001000110001 K
b10000 U
1X
0]
0`
1a
1b
xc
b0 d
b11111111111111111111111111110111 e
b0x f
b11 h
b101 i
b0 j
b100 k
0n
bx p
b10111 q
0r
xt
b10000 v
b10000 z
b0 }
0~
#150000
0-!
05
09!
0<!
0X
0`
#155000
0!
b0 !!
0"
0#
0#!
0%
bx *!
x+
b0 +!
1-
0-!
b10001 .
0.!
15
b1111 7
18
b0xxx 9
19!
b0 :
b0x :!
b0xxx ;
1<!
bx =!
b10001 >
b110000 ?!
b111000 @!
b10001 D!
b10000 G
b100 H
b11110100001000110000 K
0M
0O
b10001 U
1X
1]
0`
0a
0b
b0 d
b10111 e
b0x f
b1 g
b0 h
b101 i
b11 j
b100 k
b111 m
1n
1o
bx p
b10111 q
xr
b10001 v
b10001 z
b0 }
0~
#160000
0-!
05
09!
0<!
0X
0`
#165000
0!
b0 !!
0"
1#
0#!
b110000 $
x$!
1%
b111000 &
0'
bx *!
b0 +!
b0xxx ,
1-
0-!
b10010 .
0.!
15
b1111 7
18
b0xxx 9
19!
b0 :
b0 :!
b0xxx ;
1<!
bx =!
b10010 >
b10010 D!
b10001 G
b11110100001000101111 K
1M
b110000 N
1O
b111000 P
b10010 U
1X
1]
0`
0a
0b
0c
b0 d
b10111 e
b0x f
b101 g
b0 h
b1 i
b0 j
b111 k
b100 m
1n
0o
bx p
b10111 q
xr
0t
b10010 v
b10010 z
b0 }
0~
#170000
0-!
05
09!
0<!
0X
0`
#175000
1!
b0 !!
1"
0#!
x$!
1'
bx *!
0+
b0 +!
1-
0-!
b10011 .
0.!
15
b0 7
x8
b111000 9
19!
b0x :
b0 :!
b0xxx ;
1<!
bx =!
b10011 >
b10011 D!
b10010 G
b11110100001000101110 K
b10011 U
1X
0]
0`
1a
1b
xc
b0 d
b10111 e
b0x f
b101 g
b11 h
b101 i
b0 j
b100 k
b100 m
0n
bx p
b111000 q
0r
xt
b10011 v
b10011 z
b0 }
0~
#180000
0-!
05
09!
0<!
0X
0`
#185000
b0 !!
0#
0#!
0%
bx *!
x+
b0 +!
1-
0-!
b10100 .
0.!
15
b1111 7
18
19!
b0x :!
b0xxx ;
1<!
bx =!
b10100 >
b110100 ?!
b111111 @!
b10100 D!
b10011 G
b101 H
b11110100001000101101 K
0M
0O
b10100 U
1X
1]
0`
0a
0b
b0 d
b111000 e
b0x f
b10 g
b0 h
b101 i
b11 j
b100 k
b0 m
0n
1o
bx p
b111000 q
xr
b10100 v
b10100 z
b0 }
0~
#190000
0-!
05
09!
0<!
0X
0`
#195000
0!
b0 !!
0"
1#
0#!
b110100 $
x$!
1%
b111111 &
0'
bx *!
b0 +!
b111000 ,
1-
0-!
b10101 .
0.!
15
b1111 7
18
b0xxx 9
19!
b0 :
b0x :!
b111000 ;
1<!
bx =!
b10101 >
b10101 D!
b10100 G
b11110100001000101100 K
1M
b110100 N
1O
b111111 P
b10101 U
1X
1]
0`
0a
0b
0c
b0 d
b111000 e
b0x f
b101 g
b0 h
b10 i
b0 j
b0 k
b100 m
1n
0o
bx p
b111000 q
xr
0t
b10101 v
b10101 z
b0 }
0~
#200000
0-!
05
09!
0<!
0X
0`
#205000
1!
b0 !!
1"
0#!
x$!
1'
bx *!
0+
b0 +!
b0xxx ,
1-
0-!
b10110 .
0.!
15
b0 7
x8
b111111 9
19!
b0x :
b0 :!
b0xxx ;
1<!
bx =!
b10110 >
b10110 D!
b10101 G
b11110100001000101011 K
b10110 U
1X
0]
0`
1a
1b
xc
b0 d
b111000 e
b0x f
b101 g
b11 h
b101 i
b0 j
b100 k
b100 m
0n
bx p
b111111 q
0r
xt
b10110 v
b10110 z
b0 }
0~
#210000
0-!
05
09!
0<!
0X
0`
#215000
0!
b0 !!
0"
0#
0#!
0%
bx *!
x+
b0 +!
1-
0-!
b10111 .
0.!
15
b1111 7
18
b0xxx 9
19!
b0 :
b0x :!
b0xxx ;
1<!
bx =!
b10111 >
b111000 ?!
b111000 @!
b10111 D!
b10110 G
b110 H
b11110100001000101010 K
0M
0O
b10111 U
1X
1]
0`
0a
0b
b0 d
b111111 e
b0x f
b1 g
b0 h
b101 i
b11 j
b100 k
b111 m
1n
1o
bx p
b111111 q
xr
b10111 v
b10111 z
b0 }
0~
#220000
0-!
05
09!
0<!
0X
0`
#225000
0!
b0 !!
0"
1#
0#!
b111000 $
x$!
1%
b111000 &
0'
bx *!
b0 +!
b0xxx ,
1-
0-!
b11000 .
0.!
15
b1111 7
18
b0xxx 9
19!
b0 :
b0 :!
b0xxx ;
1<!
bx =!
b11000 >
b11000 D!
b10111 G
b11110100001000101001 K
1M
b111000 N
1O
b111000 P
b11000 U
1X
1]
0`
0a
0b
0c
b0 d
b111111 e
b0x f
b101 g
b0 h
b1 i
b0 j
b111 k
b100 m
1n
0o
bx p
b111111 q
xr
0t
b11000 v
b11000 z
b0 }
0~
#230000
0-!
05
09!
0<!
0X
0`
#235000
1!
b0 !!
1"
0#!
x$!
1'
bx *!
0+
b0 +!
1-
0-!
b11001 .
0.!
15
b0 7
x8
b111000 9
19!
b0x :
b0 :!
b0xxx ;
1<!
bx =!
b11001 >
b11001 D!
b11000 G
b11110100001000101000 K
b11001 U
1X
0]
0`
1a
1b
xc
b0 d
b111111 e
b0x f
b101 g
b11 h
b101 i
b0 j
b100 k
b100 m
0n
bx p
b111000 q
0r
xt
b11001 v
b11001 z
b0 }
0~
#240000
0-!
05
09!
0<!
0X
0`
#245000
b0 !!
0#
0#!
0%
bx *!
x+
b0 +!
1-
0-!
b11010 .
0.!
15
b1111 7
18
19!
b0x :!
b0xxx ;
1<!
bx =!
b11010 >
b111100 ?!
b10111 @!
b11010 D!
b11001 G
b111 H
b11110100001000100111 K
0M
0O
b11010 U
1X
1]
0`
0a
0b
b0 d
b111000 e
b0x f
b10 g
b0 h
b101 i
b11 j
b100 k
b0 m
0n
1o
bx p
b111000 q
xr
b11010 v
b11010 z
b0 }
0~
#250000
0-!
05
09!
0<!
0X
0`
#255000
0!
b0 !!
0"
1#
0#!
b111100 $
x$!
1%
b10111 &
0'
bx *!
b0 +!
b111000 ,
1-
0-!
b11011 .
0.!
15
b1111 7
18
b0xxx 9
19!
b0 :
b0x :!
b111000 ;
1<!
bx =!
b11011 >
b11011 D!
b11010 G
b11110100001000100110 K
1M
b111100 N
1O
b10111 P
b11011 U
1X
1]
0`
0a
0b
0c
b0 d
b111000 e
b0x f
b101 g
b0 h
b10 i
b0 j
b0 k
b100 m
1n
0o
bx p
b111000 q
xr
0t
b11011 v
b11011 z
b0 }
0~
#260000
0-!
05
09!
0<!
0X
0`
#265000
1!
b0 !!
1"
0#!
x$!
1'
bx *!
0+
b0 +!
b0xxx ,
1-
0-!
b11100 .
0.!
15
b0 7
x8
b10111 9
19!
b0x :
b0 :!
b0xxx ;
1<!
bx =!
b11100 >
b11100 D!
b11011 G
b11110100001000100101 K
b11100 U
1X
0]
0`
1a
1b
xc
b0 d
b111000 e
b0x f
b101 g
b11 h
b101 i
b0 j
b100 k
b100 m
0n
bx p
b10111 q
0r
xt
b11100 v
b11100 z
b0 }
0~
#270000
0-!
05
09!
0<!
0X
0`
#275000
0!
b0 !!
0"
0#
0#!
0%
bx *!
x+
b0 +!
1-
0-!
b11101 .
0.!
15
b1111 7
18
b0xxx 9
19!
b0 :
b0x :!
b0xxx ;
1<!
bx =!
b11101 >
b1000000 ?!
b11111111111111111111111111110111 @!
b11101 D!
b11100 G
b1000 H
b11110100001000100100 K
0M
0O
b11101 U
1X
1]
0`
0a
0b
b0 d
b10111 e
b0x f
b1 g
b0 h
b101 i
b11 j
b100 k
b111 m
1n
1o
bx p
b10111 q
xr
b11101 v
b11101 z
b0 }
0~
#280000
0-!
05
09!
0<!
0X
0`
#285000
0!
b0 !!
0"
1#
0#!
b1000000 $
x$!
1%
b11111111111111111111111111110111 &
0'
bx *!
b0 +!
b0xxx ,
1-
0-!
b11110 .
0.!
15
b1111 7
18
b0xxx 9
19!
b0 :
b0 :!
b0xxx ;
1<!
bx =!
b11110 >
b11110 D!
b11101 G
b11110100001000100011 K
1M
b1000000 N
1O
b11111111111111111111111111110111 P
b11110 U
1X
1]
0`
0a
0b
0c
b0 d
b10111 e
b0x f
b101 g
b0 h
b1 i
b0 j
b111 k
b100 m
1n
0o
bx p
b10111 q
xr
0t
b11110 v
b11110 z
b0 }
0~
#290000
0-!
05
09!
0<!
0X
0`
#295000
1!
b0 !!
1"
0#!
x$!
1'
bx *!
0+
b0 +!
1-
0-!
b11111 .
0.!
15
b0 7
x8
b11111111111111111111111111110111 9
19!
b0x :
b0 :!
b0xxx ;
1<!
bx =!
b11111 >
b11111 D!
b11110 G
b11110100001000100010 K
b11111 U
1X
0]
0`
1a
1b
xc
b0 d
b10111 e
b0x f
b11 h
b101 i
b0 j
b100 k
0n
bx p
b11111111111111111111111111110111 q
0r
xt
b11111 v
b11111 z
b0 }
0~
#300000
0-!
05
09!
0<!
0X
0`
#305000
0!
b0 !!
0"
0#
0#!
0%
bx *!
x+
b0 +!
1-
0-!
b100000 .
0.!
15
b1111 7
18
b0xxx 9
19!
b0 :
b0x :!
b0xxx ;
1<!
bx =!
b100000 >
b1000100 ?!
b11111111111111111111111111110110 @!
b100000 D!
b11111 G
b1001 H
b11110100001000100001 K
0M
0O
b100000 U
1X
1]
0`
0a
0b
b0 d
b11111111111111111111111111110111 e
b0x f
b1 g
b0 h
b101 i
b11 j
b100 k
b111 m
1n
1o
bx p
b11111111111111111111111111110111 q
xr
b100000 v
b100000 z
b0 }
0~
#310000
0-!
05
09!
0<!
0X
0`
#315000
0!
b0 !!
0"
1#
0#!
b1000100 $
x$!
1%
b11111111111111111111111111110110 &
0'
bx *!
b0 +!
b0xxx ,
1-
0-!
b100001 .
0.!
15
b1111 7
18
b0xxx 9
19!
b0 :
b0 :!
b0xxx ;
1<!
bx =!
b100001 >
b100001 D!
b100000 G
b11110100001000100000 K
1M
b1000100 N
1O
b11111111111111111111111111110110 P
b100001 U
1X
1]
0`
0a
0b
0c
b0 d
b11111111111111111111111111110111 e
b0x f
b101 g
b0 h
b1 i
b0 j
b111 k
b100 m
1n
0o
bx p
b11111111111111111111111111110111 q
xr
0t
b100001 v
b100001 z
b0 }
0~
#320000
0-!
05
09!
0<!
0X
0`
#325000
1!
b0 !!
1"
0#!
x$!
1'
bx *!
0+
b0 +!
1-
0-!
b100010 .
0.!
15
b0 7
x8
b11111111111111111111111111110110 9
19!
b0x :
b0 :!
b0xxx ;
1<!
bx =!
b100010 >
b100010 D!
b100001 G
b11110100001000011111 K
b100010 U
1X
0]
0`
1a
1b
xc
b0 d
b11111111111111111111111111110111 e
b0x f
b101 g
b11 h
b101 i
b0 j
b100 k
b100 m
0n
bx p
b11111111111111111111111111110110 q
0r
xt
b100010 v
b100010 z
b0 }
0~
#330000
0-!
05
09!
0<!
0X
0`
#335000
b0 !!
0#
0#!
0%
bx *!
x+
b0 +!
1-
0-!
b100011 .
0.!
15
b1111 7
18
19!
b0x :!
b0xxx ;
1<!
bx =!
b100011 >
b1001000 ?!
b0 @!
b100011 D!
b100010 G
b1010 H
b11110100001000011110 K
0M
0O
b100011 U
1X
1]
0`
0a
0b
b0 d
b11111111111111111111111111110110 e
b0x f
b10 g
b0 h
b101 i
b11 j
b100 k
b110 m
0n
1o
bx p
b11111111111111111111111111110110 q
xr
b100011 v
b100011 z
b0 }
0~
#340000
0-!
05
09!
0<!
0X
0`
